Strava Fitness Analysis
…
The distance for everything is in Km, but Track Running is in meters.

Collie doesn’t have any data under Track Running, but I noticed that under Title in Trail Running there’s at least 1 observation with a Title description of Track Running - it’s on the last page.

Collie never ran Street Running or at least he doesn’t have any records of running one.

Observations from the Treadmill Running are very clear and present improvements over time

Assumptions

We are assuming that Collie mistakenly entered the “Track Run” as the title for one of his Trail Running data, primarly because he does not have any data on Track Running so we do not expect him to have only one.

Importing Strava Data

# A tibble: 498 × 41
   Activity.Type     Date       Favorite Title Distance Calories Time     Avg.HR
   <chr>             <date>     <lgl>    <chr>    <dbl>    <dbl> <time>   <chr> 
 1 Running           2023-09-16 FALSE    Easy…    11.0      1080 01:13:53 164   
 2 Trail Running     2023-09-13 FALSE    Fran…     7.25      571 00:42:56 153   
 3 Street Running    2023-08-20 FALSE    Edmo…    42.2      3017 03:42:25 148   
 4 Track Running     2023-08-03 FALSE    Runl…  2740         293 00:21:52 143   
 5 Trail Running     2023-07-30 FALSE    Hard…    26.0      2136 03:07:23 149   
 6 Treadmill Running 2023-07-19 FALSE    Nine…    15.9       986 01:14:11 146   
 7 Treadmill Running 2023-07-15 FALSE    9.5 …    18.4      1149 01:35:06 144   
 8 Treadmill Running 2023-07-04 FALSE    Six-…    10.7       677 00:50:17 148   
 9 Running           2023-07-02 FALSE    Grea…     9.91      780 00:53:39 173   
10 Street Running    2023-06-29 FALSE    Cool…     6.1       475 00:39:24 143   
# ℹ 488 more rows
# ℹ 33 more variables: Max.HR <chr>, Aerobic.TE <chr>, Avg.Run.Cadence <chr>,
#   Max.Run.Cadence <chr>, Avg.Pace <time>, Best.Pace <time>,
#   Total.Ascent <chr>, Total.Descent <chr>, Avg.Stride.Length <dbl>,
#   Avg.Vertical.Ratio <dbl>, Avg.Vertical.Oscillation <dbl>,
#   Avg.Ground.Contact.Time <dbl>, Training.Stress.Score. <dbl>,
#   Avg.Power <chr>, Max.Power <chr>, Flow <dbl>, Avg..Swolf <dbl>, …

# A tibble: 498 × 29
   Activity.Type     Date       Favorite Title Distance Calories Time     Avg.HR
   <chr>             <date>     <lgl>    <chr>    <dbl>    <dbl> <time>   <chr> 
 1 Running           2023-09-16 FALSE    Easy…    11.0      1080 01:13:53 164   
 2 Trail Running     2023-09-13 FALSE    Fran…     7.25      571 00:42:56 153   
 3 Street Running    2023-08-20 FALSE    Edmo…    42.2      3017 03:42:25 148   
 4 Track Running     2023-08-03 FALSE    Runl…     2.74      293 00:21:52 143   
 5 Trail Running     2023-07-30 FALSE    Hard…    26.0      2136 03:07:23 149   
 6 Treadmill Running 2023-07-19 FALSE    Nine…    15.9       986 01:14:11 146   
 7 Treadmill Running 2023-07-15 FALSE    9.5 …    18.4      1149 01:35:06 144   
 8 Treadmill Running 2023-07-04 FALSE    Six-…    10.7       677 00:50:17 148   
 9 Running           2023-07-02 FALSE    Grea…     9.91      780 00:53:39 173   
10 Street Running    2023-06-29 FALSE    Cool…     6.1       475 00:39:24 143   
# ℹ 488 more rows
# ℹ 21 more variables: Max.HR <chr>, Aerobic.TE <chr>, Avg.Run.Cadence <chr>,
#   Max.Run.Cadence <chr>, Avg.Pace <time>, Best.Pace <time>,
#   Total.Ascent <chr>, Total.Descent <chr>, Avg.Stride.Length <dbl>,
#   Min.Temp <dbl>, Best.Lap.Time <time>, Number.of.Laps <dbl>, Max.Temp <dbl>,
#   Avg.Resp <chr>, Min.Resp <chr>, Max.Resp <chr>, Moving.Time <time>,
#   Elapsed.Time <time>, Min.Elevation <chr>, Max.Elevation <chr>, …

# A tibble: 498 × 29
   Activity.Type     Date       Favorite Title Distance Calories Time     Avg.HR
   <chr>             <date>     <lgl>    <chr>    <dbl>    <dbl> <time>   <chr> 
 1 Running           2023-09-16 FALSE    Easy…    11.0      1080 01:13:53 164   
 2 Trail Running     2023-09-13 FALSE    Fran…     7.25      571 00:42:56 153   
 3 Street Running    2023-08-20 FALSE    Edmo…    42.2      3017 03:42:25 148   
 4 Track Running     2023-08-03 FALSE    Runl…     2.74      293 00:21:52 143   
 5 Trail Running     2023-07-30 FALSE    Hard…    26.0      2136 03:07:23 149   
 6 Treadmill Running 2023-07-19 FALSE    Nine…    15.9       986 01:14:11 146   
 7 Treadmill Running 2023-07-15 FALSE    9.5 …    18.4      1149 01:35:06 144   
 8 Treadmill Running 2023-07-04 FALSE    Six-…    10.7       677 00:50:17 148   
 9 Running           2023-07-02 FALSE    Grea…     9.91      780 00:53:39 173   
10 Street Running    2023-06-29 FALSE    Cool…     6.1       475 00:39:24 143   
# ℹ 488 more rows
# ℹ 21 more variables: Max.HR <chr>, Aerobic.TE <chr>, Avg.Run.Cadence <chr>,
#   Max.Run.Cadence <chr>, Avg.Pace <time>, Best.Pace <time>,
#   Total.Ascent <chr>, Total.Descent <chr>, Avg.Stride.Length <dbl>,
#   Min.Temp <dbl>, Best.Lap.Time <time>, Number.of.Laps <dbl>, Max.Temp <dbl>,
#   Avg.Resp <chr>, Min.Resp <chr>, Max.Resp <chr>, Moving.Time <time>,
#   Elapsed.Time <time>, Min.Elevation <chr>, Max.Elevation <chr>, …
…
Warning: There was 1 warning in `dplyr::mutate()`.
ℹ In argument: `Min.Elevation = as.numeric(Min.Elevation)`.
Caused by warning:
! NAs introduced by coercion

Warning: There was 1 warning in `dplyr::mutate()`.
ℹ In argument: `Max.Elevation = as.numeric(Max.Elevation)`.
Caused by warning:
! NAs introduced by coercion

# A tibble: 498 × 29
   Activity.Type     Date       Favorite Title Distance Calories Time     Avg.HR
   <chr>             <date>     <lgl>    <chr>    <dbl>    <dbl> <time>    <dbl>
 1 Running           2023-09-16 FALSE    Easy…    11.0      1080 01:13:53    164
 2 Trail Running     2023-09-13 FALSE    Fran…     7.25      571 00:42:56    153
 3 Street Running    2023-08-20 FALSE    Edmo…    42.2      3017 03:42:25    148
 4 Track Running     2023-08-03 FALSE    Runl…     2.74      293 00:21:52    143
 5 Trail Running     2023-07-30 FALSE    Hard…    26.0      2136 03:07:23    149
 6 Treadmill Running 2023-07-19 FALSE    Nine…    15.9       986 01:14:11    146
 7 Treadmill Running 2023-07-15 FALSE    9.5 …    18.4      1149 01:35:06    144
 8 Treadmill Running 2023-07-04 FALSE    Six-…    10.7       677 00:50:17    148
 9 Running           2023-07-02 FALSE    Grea…     9.91      780 00:53:39    173
10 Street Running    2023-06-29 FALSE    Cool…     6.1       475 00:39:24    143
# ℹ 488 more rows
# ℹ 21 more variables: Max.HR <dbl>, Aerobic.TE <dbl>, Avg.Run.Cadence <dbl>,
#   Max.Run.Cadence <dbl>, Avg.Pace <time>, Best.Pace <time>,
#   Total.Ascent <dbl>, Total.Descent <dbl>, Avg.Stride.Length <dbl>,
#   Min.Temp <dbl>, Best.Lap.Time <time>, Number.of.Laps <dbl>, Max.Temp <dbl>,
#   Avg.Resp <chr>, Min.Resp <chr>, Max.Resp <chr>, Moving.Time <time>,
#   Elapsed.Time <time>, Min.Elevation <dbl>, Max.Elevation <dbl>, …

# A tibble: 170 × 5
   Title                  Distance Time     Avg.Pace Best.Pace
   <chr>                     <dbl> <time>   <time>   <time>   
 1 Calgary Trail Running     10.0  00:44:56 04:29    03:58    
 2 Calgary Trail Running     10.0  00:42:50 04:17    03:54    
 3 Calgary Trail Running     12.6  00:56:29 04:29    03:54    
 4 Calgary Trail Running     10.0  00:44:34 04:27    03:52    
 5 Calgary Trail Running      9.02 00:40:50 04:32    03:50    
 6 Edmonton Trail Running     7.07 00:32:42 04:37    03:28    
 7 Calgary Trail Running     10.0  00:46:17 04:37    04:09    
 8 Calgary Trail Running     13.3  01:15:11 05:39    03:59    
 9 Calgary Trail Running     10.0  00:43:13 04:19    03:55    
10 Calgary Trail Running     10.0  00:47:32 04:44    04:19    
# ℹ 160 more rows
…
Observations from the Treadmill Running are very clear and present improvements over time

# A tibble: 299 × 1
   Avg.Resp
   <chr>   
 1 --      
 2 --      
 3 --      
 4 --      
 5 --      
 6 --      
 7 --      
 8 --      
 9 --      
10 --      
# ℹ 289 more rows
…
